Combining DP Targets with the MSD • tameDP
…
#no exta columns in the Data Pack
setdiff(names(df_dp), names(df_msd))
#> character(0)

It also has more indicators and disaggregates that aren’t in the Data Pack. To simplify matters, we can subset, or limit, the dataset to what we have to work with. Luckily we have a table stored in this packaged called mer_disagg_mapping that contains all the indicators and their disaggregates that we can use to filter the MSD by.

mer_disagg_mapping
#> # A tibble: 60 x 4
#>    indicator        numeratordenom standardizeddisaggregate      kp_disagg
#>    <chr>            <chr>          <chr>                         <lgl>    
#>  1 AGYW_PREV        D              Age/Sex/DREAMSBegun           FALSE    
#>  2 AGYW_PREV        N              Age/Sex/DREAMSPrimaryComplete FALSE    
#>  3 CXCA_SCRN        N              Age/Sex/HIVStatus             FALSE    
#>  4 DIAGNOSED_SUBNAT N              Age/Sex/HIVStatus             FALSE    
#>  5 GEND_GBV         N              ViolenceServiceType           FALSE    
#>  6 HIV_PREV         N              Age/Sex                       FALSE    
#>  7 HTS_INDEX_COM    N              Age/Sex/Result                FALSE    
#>  8 HTS_INDEX_FAC    N              Age/Sex/Result                FALSE    
#>  9 HTS_RECENT       N              KeyPop/HIVStatus              TRUE     
#> 10 HTS_RECENT       N              Modality/Age/Sex/HIVStatus    FALSE    
#> # ... with 50 more rows
…
